{
  "additionalDeposits": [
    {"id": "AS_NEGOTIATED", "text": "As Negotiated"},
    {"id": "UNKNOWN", "text": "Unknown"},
    {"id": "UP_TO_LIMIT", "text": "Up to Limit"}
  ],
  "adviceServiceRemedies": [
    {"id": "TRADE_LIMIT_PLAN_LEVEL", "text": "Trade Limit - Plan Level"},
    {"id": "TRADE_LIMIT_CONTRACT_LEVEL", "text": "Trade Limit - Contract Level"},
    {"id": "CONTINGENT_TRADE_LIMIT_PLAN_LEVEL", "text": "Contingent Trade Limit - Plan Level"},
    {"id": "CONTINGENT_TRADE_LIMIT_CONTRACT_LEVEL", "text": "Contingent Trade Limit - Contract Level"},
    {"id": "MV_EVENT_MODEL_METHODOLOGY_CHANGE", "text": "MV Event - Model/Methodology Change"},
    {"id": "DURATION_LIMIT", "text": "Duration Limit"}
  ],
  "averageCreditQualities": [
    {"id": "AAA", "text": "AAA"},
    {"id": "AAPLUS", "text": "AA+"},
    {"id": "AA", "text": "AA"},
    {"id": "AAMINUS", "text": "AA-"},
    {"id": "APLUS", "text": "A+"},
    {"id": "A", "text": "A"},
    {"id": "AMINUS", "text": "A-"}
  ],
  "benefitResponseTypes": [
    {"id": "LAST_IN_FIRST_OUT", "text": "Last In First Out"},
    {"id": "LAST_IN_FIRST_OUT_PRORATA", "text": "Last In First Out Prorata"},
    {"id": "NOT_APPLICABLE", "text": "Not Applicable"},
    {"id": "NET_PRORATA", "text": "Net Prorata"},
    {"id": "PURE_PRORATA", "text": "Pure Prorata"},
    {"id": "TIERED_PRORATA", "text": "Tiered Prorata"}
  ],
  "billingFrequencyTypes": [
    {"id": "ANNUAL", "text": "Annual"},
    {"id": "MONTHLY", "text": "Monthly"},
    {"id": "QUARTERLY", "text": "Quarterly"},
    {"id": "SEMI_ANNUAL", "text": "Semi-Annual"}
  ],
  "calculationMethodInputDefinitions": [
    {"id": "DOLLAR_WEIGHTED_YIELD", "text": "Dollar Weighted Yield"},
    {"id": "DURATION_WEIGHTED_YIELD", "text": "Duration Weighted Yield"}
  ],
  "contactTypes": [
    {"id": "ADVISOR", "text": "Advisor"},
    {"id": "CONSULTANT", "text": "Consultan"},
    {"id": "CUSTODIAN", "text": "Custodian"},
    {"id": "INTERMEDIARY", "text": "Intermediary"},
    {"id": "INVESTMENT_MANAGER", "text": "Investment Manager"},
    {"id": "LEGAL", "text": "Legal"},
    {"id": "MARKETING", "text": "Marketing"},
    {"id": "OPERATIONS", "text": "Operations"},
    {"id": "OTHER", "text": "Other"},
    {"id": "OWNER", "text": "Owner"},
    {"id": "PLAN_SPONSOR", "text": "Plan Sponsor"},
    {"id": "PROVIDER", "text": "Provider"},
    {"id": "RECORD_KEEPER", "text": "Record Keeper"},
    {"id": "RISK", "text": "Risk"},
    {"id": "TRUSTEE", "text": "Trustee"}
  ],
  "contractStatuses": [
    {"id": "PENDING", "text": "Pending"},
    {"id": "PENDING_JASPER", "text": "Pending From Jasper"},
    {"id": "SUBMITTED", "text": "Submitted"},
    {"id": "ACTIVE", "text": "Active"},
    {"id": "PENDING_TERMINATION", "text": "Pending Termination"},
    {"id": "TERMINATED", "text": "Terminated"},
    {"id": "INACTIVE", "text": "Inactive"}
  ],
  "contractTypes": [
    {"id": "SINGLE_PLAN", "text": "Single Plan"},
    {"id": "POOLED_PLAN", "text": "Pooled Plan"},
    {"id": "SAVINGS_529_PLAN", "text": "529 Plan"}
  ],
  "corridorOptionCalculationMethods": [
    {"id": "ROLLING", "text": "Rolling Months"},
    {"id": "PLAN_CALENDAR", "text": "Plan Calendar"}
  ],
  "creditingRateCalculationMethods": [
    {"id": "COMPOUND_AMORTIZATION_METHOD", "text": "Compound Amortization Method"},
    {"id": "BOOK_VALUE_DOLLAR_DURATION", "text": "Book Value Dollar Duration"},
    {"id": "MARKET_VALUE_DOLLAR_DURATION", "text": "Market Value Dollar Duration"},
    {"id": "IRR", "text": "IRR"}
  ],
  "creditingRateFrequencies": [
    {"id": "DAILY", "text": "Daily"},
    {"id": "MONTHLY", "text": "Monthly"},
    {"id": "QUARTERLY", "text": "Quarterly"}
  ],
  "creditingRateInputBases": [
    {"id": "ACTUAL", "text": "Actual"},
    {"id": "BENCHMARK", "text": "Benchmark"}
  ],
  "creditingRateMonths": [
    {"id": "NOT_APPLICABLE", "text": "", "number": null},
    {"id": "JANUARY", "text": "January", "number": 0},
    {"id": "FEBRUARY", "text": "February", "number": 1},
    {"id": "MARCH", "text": "March", "number": 2},
    {"id": "APRIL", "text": "April", "number": 3},
    {"id": "MAY", "text": "May", "number": 4},
    {"id": "JUNE", "text": "June", "number": 5},
    {"id": "JULY", "text": "July", "number": 6},
    {"id": "AUGUST", "text": "August", "number": 7},
    {"id": "SEPTEMBER", "text": "September", "number": 8},
    {"id": "OCTOBER", "text": "October", "number": 9},
    {"id": "NOVEMBER", "text": "November", "number": 10},
    {"id": "DECEMBER", "text": "December", "number": 11}
  ],
  "creditingRateStatuses": [
    {"id": "FORECAST", "text": "Forecasted Awaiting Calc"},
    {"id": "AWAITING", "text": "Awaiting Calc"},
    {"id": "PENDING", "text": "Pending"},
    {"id": "APPROVED", "text": "Approved"}
  ],
  "creditingRateTypes": [
    {"id": "GROSS", "text": "Gross"},
    {"id": "NET", "text": "Net"}
  ],
  "cycleTypes": [
    {"id": "DAILY", "text": "Daily"},
    {"id": "MONTHLY", "text": "Monthly"},
    {"id": "IMPORT", "text": "Import"},
    {"id": "CALCULATE", "text": "Calculate"}
  ],
  "feeDailyRateFormulas": [
    {"id": "DAILY_FEE", "text": "(1+Fee Rate)^(1/number days in year)-1"}
  ],
  "messageTypes": [
    {"id": "FATAL", "text": "Fatal"},
    {"id": "ERROR", "text": "Error"},
    {"id": "WARNING", "text": "Warning"},
    {"id": "INFO", "text": "Info"}
  ],
  "monthTypes": [
    {"id": "JANUARY", "text": "January", "number": 0},
    {"id": "FEBRUARY", "text": "February", "number": 1},
    {"id": "MARCH", "text": "March", "number": 2},
    {"id": "APRIL", "text": "April", "number": 3},
    {"id": "MAY", "text": "May", "number": 4},
    {"id": "JUNE", "text": "June", "number": 5},
    {"id": "JULY", "text": "July", "number": 6},
    {"id": "AUGUST", "text": "August", "number": 7},
    {"id": "SEPTEMBER", "text": "September", "number": 8},
    {"id": "OCTOBER", "text": "October", "number": 9},
    {"id": "NOVEMBER", "text": "November", "number": 10},
    {"id": "DECEMBER", "text": "December", "number": 11}
  ],
  "planSponsorMoodyRatings": [
    {"id": "AAA", "text": "Aaa"},
    {"id": "AA1", "text": "Aa1"},
    {"id": "AA2", "text": "Aa2"},
    {"id": "AA3", "text": "Aa3"},
    {"id": "A1", "text": "A1"},
    {"id": "A2", "text": "A2"},
    {"id": "A3", "text": "A3"},
    {"id": "BAA1", "text": "Baa1"},
    {"id": "BAA2", "text": "Baa2"},
    {"id": "BAA3", "text": "Baa3"},
    {"id": "BA1", "text": "Ba1"},
    {"id": "BA2", "text": "Ba2"},
    {"id": "BA3", "text": "Ba3"},
    {"id": "B1", "text": "B1"},
    {"id": "B2", "text": "B2"},
    {"id": "B3", "text": "B3"},
    {"id": "CAA1", "text": "Caa1"},
    {"id": "CAA2", "text": "Caa2"},
    {"id": "CAA3", "text": "Caa3"},
    {"id": "CA", "text": "Ca"},
    {"id": "C", "text": "C"},
    {"id": "NR", "text": "NR"}
  ],
  "planSponsorOverallRatings": [
    {"id": "AAA", "text": "AAA"},
    {"id": "AAPLUS", "text": "AA+"},
    {"id": "AA", "text": "AA"},
    {"id": "AAMINUS", "text": "AA-"},
    {"id": "APLUS", "text": "A+"},
    {"id": "A", "text": "A"},
    {"id": "AMINUS", "text": "A-"},
    {"id": "BBBPLUS", "text": "BBB+"},
    {"id": "BBB", "text": "BBB"},
    {"id": "BBBMINUS", "text": "BBB-"},
    {"id": "BBPLUS", "text": "BB+"},
    {"id": "BB", "text": "BB"},
    {"id": "BBMINUS", "text": "BB-"},
    {"id": "LESS_THAN_BBMINUS", "text": "< BB-"},
    {"id": "PRIVATE", "text": "Private"}
  ],
  "planSponsorRatings": [
    {"id": "AAA", "text": "AAA"},
    {"id": "AAPLUS", "text": "AA+"},
    {"id": "AA", "text": "AA"},
    {"id": "AAMINUS", "text": "AA-"},
    {"id": "APLUS", "text": "A+"},
    {"id": "A", "text": "A"},
    {"id": "AMINUS", "text": "A-"},
    {"id": "BBBPLUS", "text": "BBB+"},
    {"id": "BBB", "text": "BBB"},
    {"id": "BBBMINUS", "text": "BBB-"},
    {"id": "BBPLUS", "text": "BB+"},
    {"id": "BB", "text": "BB"},
    {"id": "BBMINUS", "text": "BB-"},
    {"id": "BPLUS", "text": "B+"},
    {"id": "B", "text": "B"},
    {"id": "BMINUS", "text": "B-"},
    {"id": "CCCPLUS", "text": "CCC+"},
    {"id": "CCC", "text": "CCC"},
    {"id": "CCCMINUS", "text": "CCC-"},
    {"id": "CC", "text": "CC"},
    {"id": "C", "text": "C"},
    {"id": "D", "text": "D"},
    {"id": "NR", "text": "NR"}
  ],
  "riskCategories": [
    {"id": "GRADE", "text": "Grade"},
    {"id": "CATEGORY", "text": "Category"},
    {"id": "A", "text": "A"},
    {"id": "AMINUS", "text": "A-"},
    {"id": "APLUS", "text": "A+"},
    {"id": "B", "text": "B"},
    {"id": "BMINUS", "text": "B-"},
    {"id": "BPLUS", "text": "B+"},
    {"id": "C", "text": "C"},
    {"id": "CASH_FLOW", "text": "cashFlow"},
    {"id": "CMINUS", "text": "C-"},
    {"id": "COMPETING_FUNDS", "text": "competingFunds"},
    {"id": "CPLUS", "text": "C+"},
    {"id": "D", "text": "D"},
    {"id": "DEMOGRAPHICS", "text": "demographics"},
    {"id": "DMINUS", "text": "D-"},
    {"id": "DPLUS", "text": "D+"},
    {"id": "F", "text": "F"},
    {"id": "FUND_MANAGEMENT", "text": "fundManagement"},
    {"id": "MARKET_BOOK_RATIO", "text": "marketBookRatio"},
    {"id": "PLAN_DESIGN", "text": "planDesign"},
    {"id": "PLAN_SPONSOR", "text": "planSponsor"},
    {"id": "PLAN_SV_FUND_BALANCES", "text": "planSvFundBalances"},
    {"id": "POOLED_FUND_BALANCES", "text": "pooledFundBalances"},
    {"id": "POOLED_FUND_DESIGN", "text": "pooledFundDesign"},
    {"id": "WRAPPED_PORTFOLIO", "text": "wrappedPortfolio"}
  ],
  "roles": [
    {"id": "ADMINISTRATION", "text": "OPS_ADMIN"},
    {"id": "COMPLIANCE", "text": "COMPLIANCE"},
    {"id": "RISK", "text": "RISK"},
    {"id": "REPORTING", "text": "REPORTING"},
    {"id": "SUPPORT", "text": "IT_SUPPORT"}
  ],
  "sectors": [
    {"id": "PF", "text": "01000000 - Pooled Funds"},
    {"id": "SLG", "text": "02000000 - State and Local Governments"},
    {"id": "PLN", "text": "03000000 - 529 Plans"},
    {"id": "OGVNE", "text": "04000000 - Other Government Entities"},
    {"id": "OGDL", "text": "10101010 - Oil & Gas Drilling"},
    {"id": "OGSRV", "text": "10101020 - Oil & Gas Equipment & Services"},
    {"id": "INTOG", "text": "10102010 - Integrated Oil & Gas"},
    {"id": "OGEXPROD", "text": "10102020 - Oil & Gas Exploration & Production"},
    {"id": "OGREFMKG", "text": "10102030 - Oil & Gas Refining & Marketing"},
    {"id": "OGSTRANS", "text": "10102040 - Oil & Gas Storage & Transportation"},
    {"id": "CLCF", "text": "10102050 - Coal & Consumable Fuels"},
    {"id": "COMCHEM", "text": "15101010 - Commodity Chemicals"},
    {"id": "DIVCHEM", "text": "15101020 - Diversified Chemicals"},
    {"id": "FACHEM", "text": "15101030 - Fertilizers & Agricultural Chemicals"},
    {"id": "INDGAS", "text": "15101040 - Industrial Gases"},
    {"id": "SPCHEM", "text": "15101050 - Specialty Chemicals"},
    {"id": "CONMAT", "text": "15102010 - Construction Materials"},
    {"id": "MGCONT", "text": "15103010 - Metal & Glass Containers"},
    {"id": "PPKG", "text": "15103020 - Paper Packaging"},
    {"id": "ALM", "text": "15104010 - Aluminum"},
    {"id": "DIVMM", "text": "15104020 - Diversified Metals & Mining"},
    {"id": "GLD", "text": "15104030 - Gold"},
    {"id": "PMMIN", "text": "15104040 - Precious Metals & Minerals"},
    {"id": "SLV", "text": "15104045 - Silver"},
    {"id": "STL", "text": "15104050 - Steel"},
    {"id": "FSTPROD", "text": "15105010 - Forest Products"},
    {"id": "PPROD", "text": "15105020 - Paper Products"},
    {"id": "AERODEF", "text": "20101010 - Aerospace & Defense"},
    {"id": "BLDPROD", "text": "20102010 - Building Products"},
    {"id": "CONSTENG", "text": "20103010 - Construction & Engineering"},
    {"id": "ELECEQ", "text": "20104010 - Electrical Components & Equipment"},
    {"id": "HVYEE", "text": "20104020 - Heavy Electrical Equipment"},
    {"id": "INDCON", "text": "20105010 - Industrial Conglomerates"},
    {"id": "CMHT", "text": "20106010 - Construction Machinery & Heavy Trucks"},
    {"id": "AGFMACH", "text": "20106015 - Agricultural & Farm Machinery"},
    {"id": "INDMACH", "text": "20106020 - Industrial Machinery"},
    {"id": "TDGCODIST", "text": "20107010 - Trading Companies & Distributors"},
    {"id": "COMPR", "text": "20201010 - Commercial Printing"},
    {"id": "ENVFAC", "text": "20201050 - Environmental & Facilities Services"},
    {"id": "OFFSRVSUP", "text": "20201060 - Office Services & Supplies"},
    {"id": "DIVSUPSRV", "text": "20201070 - Diversified Support Services"},
    {"id": "SECALSRV", "text": "20201080 - Security & Alarm Services"},
    {"id": "HREMPSRV", "text": "20202010 - Human Resource & Employment Services"},
    {"id": "RCONSRV", "text": "20202020 - Research & Consulting Services"},
    {"id": "AIRFLOG", "text": "20301010 - Air Freight & Logistics"},
    {"id": "ARLNS", "text": "20302010 - Airlines"},
    {"id": "MARIN", "text": "20303010 - Marine"},
    {"id": "RR", "text": "20304010 - Railroads"},
    {"id": "TRKG", "text": "20304020 - Trucking"},
    {"id": "AIRSRV", "text": "20305010 - Airport Services"},
    {"id": "HWYRR", "text": "20305020 - Highways & Railtracks"},
    {"id": "MARPTSRV", "text": "20305030 - Marine Ports & Services"},
    {"id": "AUTOEQ", "text": "25101010 - Auto Parts & Equipment"},
    {"id": "TIRE", "text": "25101020 - Tires & Rubber"},
    {"id": "AUTOMF", "text": "25102010 - Automobile Manufacturers"},
    {"id": "MOTOMF", "text": "25102020 - Motorcycle Manufacturers"},
    {"id": "CONELE", "text": "25201010 - Consumer Electronics"},
    {"id": "HFRN", "text": "25201020 - Home Furnishings"},
    {"id": "HBLDG", "text": "25201030 - Homebuilding"},
    {"id": "HHAPP", "text": "25201040 - Household Appliances"},
    {"id": "HWSP", "text": "25201050 - Housewares & Specialties"},
    {"id": "LPROD", "text": "25202010 - Leisure Products"},
    {"id": "AALG", "text": "25203010 - Apparel, Accessories & Luxury Goods"},
    {"id": "FOOTW", "text": "25203020 - Footwear"},
    {"id": "TXTL", "text": "25203030 - Textiles"},
    {"id": "CASGM", "text": "25301010 - Casinos & Gaming"},
    {"id": "HRCL", "text": "25301020 - Hotels, Resorts & Cruise Lines"},
    {"id": "LFAC", "text": "25301030 - Leisure Facilities"},
    {"id": "REST", "text": "25301040 - Restaurants"},
    {"id": "EDSRV", "text": "25302010 - Education Services"},
    {"id": "SPCONSRV", "text": "25302020 - Specialized Consumer Services"},
    {"id": "AD", "text": "25401010 - Advertising"},
    {"id": "BC", "text": "25401020 - Broadcasting"},
    {"id": "CBLSAT", "text": "25401025 - Cable & Satellite"},
    {"id": "MOVENT", "text": "25401030 - Movies & Entertainment"},
    {"id": "PUBL", "text": "25401040 - Publishing"},
    {"id": "DISTR", "text": "25501010 - Distributors"},
    {"id": "CATRE", "text": "25502010 - Catalog Retail"},
    {"id": "INTRE", "text": "25502020 - Internet Retail"},
    {"id": "DPMTST", "text": "25503010 - Department Stores"},
    {"id": "GENMST", "text": "25503020 - General Merchandise Stores"},
    {"id": "APPRE", "text": "25504010 - Apparel Retail"},
    {"id": "COMELERE", "text": "25504020 - Computer & Electronics Retail"},
    {"id": "HIMPRE", "text": "25504030 - Home Improvement Retail"},
    {"id": "SPECST", "text": "25504040 - Specialty Stores"},
    {"id": "AUTORE", "text": "25504050 - Automotive Retail"},
    {"id": "HMRE", "text": "25504060 - Homefurnishing Retail"},
    {"id": "DRUGRE", "text": "30101010 - Drug Retail"},
    {"id": "FDDIST", "text": "30101020 - Food Distributors"},
    {"id": "FDRE", "text": "30101030 - Food Retail"},
    {"id": "HYSUPCTR", "text": "30101040 - Hypermarkets & Super Centers"},
    {"id": "BREWR", "text": "30201010 - Brewers"},
    {"id": "DISTV", "text": "30201020 - Distillers & Vintners"},
    {"id": "SDRKS", "text": "30201030 - Soft Drinks"},
    {"id": "AGPRODS", "text": "30202010 - Agricultural Products"},
    {"id": "PKGFDMTS", "text": "30202030 - Packaged Foods & Meats"},
    {"id": "TOBAC", "text": "30203010 - Tobacco"},
    {"id": "HHPROD", "text": "30301010 - Household Products"},
    {"id": "PERPROD", "text": "30302010 - Personal Products"},
    {"id": "HCEQ", "text": "35101010 - Health Care Equipment"},
    {"id": "HCSUP", "text": "35101020 - Health Care Supplies"},
    {"id": "HCDIST", "text": "35102010 - Health Care Distributors"},
    {"id": "HCSRV", "text": "35102015 - Health Care Services"},
    {"id": "HCFAC", "text": "35102020 - Health Care Facilities"},
    {"id": "MGHC", "text": "35102030 - Managed Health Care"},
    {"id": "HCTECH", "text": "35103010 - Health Care Technology"},
    {"id": "BIOTECH", "text": "35201010 - Biotechnology"},
    {"id": "PHARM", "text": "35202010 - Pharmaceuticals"},
    {"id": "LSTSRV", "text": "35203010 - Life Sciences Tools & Services"},
    {"id": "DIVBKS", "text": "40101010 - Diversified Banks"},
    {"id": "REGBKS", "text": "40101015 - Regional Banks"},
    {"id": "TMGFIN", "text": "40102010 - Thrifts & Mortgage Finance"},
    {"id": "ODIVFSRV", "text": "40201020 - Other Diversified Financial Services"},
    {"id": "MLTIH", "text": "40201030 - Multi-Sector Holdings"},
    {"id": "SPECFIN", "text": "40201040 - Specialized Finance"},
    {"id": "CONFIN", "text": "40202010 - Consumer Finance"},
    {"id": "AMGMTBKS", "text": "40203010 - Asset Management & Custody Banks"},
    {"id": "INVBKSBR", "text": "40203020 - Investment Banking & Brokerage"},
    {"id": "DIVCAPMKTS", "text": "40203030 - Diversified Capital Markets"},
    {"id": "INSBRK", "text": "40301010 - Insurance Brokers"},
    {"id": "LHINS", "text": "40301020 - Life & Health Insurance"},
    {"id": "MULTIINS", "text": "40301030 - Multi-line Insurance"},
    {"id": "PCINS", "text": "40301040 - Property & Casualty Insurance"},
    {"id": "REIN", "text": "40301050 - Reinsurance"},
    {"id": "DIVREIT", "text": "40402010 - Diversified REITs"},
    {"id": "INDREIT", "text": "40402020 - Industrial REITs"},
    {"id": "MGREIT", "text": "40402030 - Mortgage REITs"},
    {"id": "HRREIT", "text": "40402035 - Hotel & Resort REITs"},
    {"id": "OFFREIT", "text": "40402040 - Office REITs"},
    {"id": "HCREIT", "text": "40402045 - Health Care REITs"},
    {"id": "RESREIT", "text": "40402050 - Residential REITs"},
    {"id": "RETREIT", "text": "40402060 - Retail REITs"},
    {"id": "SPECREIT", "text": "40402070 - Specialized REITs"},
    {"id": "DIVREACT", "text": "40403010 - Diversified Real Estate Activities"},
    {"id": "REOPCOMP", "text": "40403020 - Real Estate Operating Companies"},
    {"id": "REDEV", "text": "40403030 - Real Estate Development"},
    {"id": "RESRV", "text": "40403040 - Real Estate Services"},
    {"id": "INTSWSRV", "text": "45101010 - Internet Software & Services"},
    {"id": "ITSERV", "text": "45102010 - IT Consulting & Other Services"},
    {"id": "DPOUTSRV", "text": "45102020 - Data Processing & Outsourced Services"},
    {"id": "APPSW", "text": "45103010 - Application Software"},
    {"id": "SYSSW", "text": "45103020 - Systems Software"},
    {"id": "HENTSW", "text": "45103030 - Home Entertainment Software"},
    {"id": "COMMEQ", "text": "45201020 - Communications Equipment"},
    {"id": "TECHHSP", "text": "45202030 - Technology Hardware, Storage & Peripherals"},
    {"id": "EEINST", "text": "45203010 - Electronic Equipment & Instruments"},
    {"id": "ELECCOMP", "text": "45203015 - Electronic Components"},
    {"id": "ELECMANU", "text": "45203020 - Electronic Manufacturing Services"},
    {"id": "TECHDIST", "text": "45203030 - Technology Distributors"},
    {"id": "SEMIEQ", "text": "45301010 - Semiconductor Equipment"},
    {"id": "SEMI", "text": "45301020 - Semiconductors"},
    {"id": "ALTCARR", "text": "50101010 - Alternative Carriers"},
    {"id": "ITELESRV", "text": "50101020 - Integrated Telecommunication Services"},
    {"id": "WTLELESRV", "text": "50102010 - Wireless Telecommunication Services"},
    {"id": "ELECUTIL", "text": "55101010 - Electric Utilities"},
    {"id": "GUTIL", "text": "55102010 - Gas Utilities"},
    {"id": "MULTIUTIL", "text": "55103010 - Multi-Utilities"},
    {"id": "WTRUTIL", "text": "55104010 - Water Utilities"},
    {"id": "IPPET", "text": "55105010 - Independent Power Producers & Energy Traders"},
    {"id": "RELE", "text": "55105020 - Renewable Electricity"}
  ],
  "states": [
    {"id": "NA", "text": "Foreign address"},
    {"id": "AK", "text": "Alaska"},
    {"id": "AL", "text": "Alabama"},
    {"id": "AR", "text": "Arkansas"},
    {"id": "AZ", "text": "Arizona"},
    {"id": "CA", "text": "California"},
    {"id": "CO", "text": "Colorado"},
    {"id": "CT", "text": "Connecticut"},
    {"id": "DC", "text": "District of Columbia"},
    {"id": "DE", "text": "Delaware"},
    {"id": "FL", "text": "Florida"},
    {"id": "GA", "text": "Georgia"},
    {"id": "HI", "text": "Hawaii"},
    {"id": "IA", "text": "Iowa"},
    {"id": "ID", "text": "Idaho"},
    {"id": "IL", "text": "Illinois"},
    {"id": "IN", "text": "Indiana"},
    {"id": "KS", "text": "Kansas"},
    {"id": "KY", "text": "Kentucky"},
    {"id": "LA", "text": "Louisiana"},
    {"id": "MA", "text": "Massachusetts"},
    {"id": "MD", "text": "Maryland"},
    {"id": "ME", "text": "Maine"},
    {"id": "MI", "text": "Michigan"},
    {"id": "MN", "text": "Minnesota"},
    {"id": "MO", "text": "Missouri"},
    {"id": "MS", "text": "Mississippi"},
    {"id": "MT", "text": "Montana"},
    {"id": "NC", "text": "North Carolina"},
    {"id": "ND", "text": "North Dakota"},
    {"id": "NE", "text": "Nebraska"},
    {"id": "NH", "text": "New Hampshire"},
    {"id": "NJ", "text": "New Jersey"},
    {"id": "NM", "text": "New Mexico"},
    {"id": "NV", "text": "Nevada"},
    {"id": "NY", "text": "New York"},
    {"id": "OH", "text": "Ohio"},
    {"id": "OK", "text": "Oklahoma"},
    {"id": "OR", "text": "Oregon"},
    {"id": "PA", "text": "Pennsylvania"},
    {"id": "RI", "text": "Rhode Island"},
    {"id": "SC", "text": "South Carolina"},
    {"id": "SD", "text": "South Dakota"},
    {"id": "TN", "text": "Tennessee"},
    {"id": "TX", "text": "Texas"},
    {"id": "UT", "text": "Utah"},
    {"id": "VA", "text": "Virginia"},
    {"id": "VT", "text": "Vermont"},
    {"id": "WA", "text": "Washington"},
    {"id": "WI", "text": "Wisconson"},
    {"id": "WV", "text": "West Virginia"},
    {"id": "WY", "text": "Wyoming"}
  ],
  "transactionDetailedTypes": [
    {"id": "INITIAL_DEPOSIT", "text": "Initial Deposit"},
    {"id": "ADDITIONAL_DEPOSIT", "text": "Additional Deposit"},
    {"id": "PARTICIPANT_ACTIVITY", "text": "Participant Activity"},
    {"id": "EMPLOYER_ACTIVITY", "text": "Employer Activity"},
    {"id": "MANAGER_ACTIVITY", "text": "Manager Activity"},
    {"id": "MARKET_VALUE_ADJUSTMENT", "text": "MV Adjustment"},
    {"id": "PUT_OPTION", "text": "Put Option"},
    {"id": "BOOK_VALUE_ADJUSTMENT", "text": "Book Value Adjustment"},
    {"id": "INTEREST_ADJUSTMENT", "text": "Interest Adjustment"},
    {"id": "TERMINATE_MV_ZERO", "text": "MV = Zero"},
    {"id": "TERMINATE_BV_ZERO", "text": "BV = Zero"},
    {"id": "TERMINATE_BY_OWNER", "text": "By Owner"},
    {"id": "TERMINATE_EXTENDED_TERMINATION", "text": "Extended Termination"},
    {"id": "TERMINATE_BY_COMPANY", "text": "By Company"},
    {"id": "TERMINATE_OTHER", "text": "Other"}
  ],
  "transactionTypes": [
    {"id": "DEPOSIT", "text": "Deposit"},
    {"id": "WITHDRAWAL", "text": "Withdrawal"},
    {"id": "ADJUSTMENT", "text": "Book Value Adjustment"},
    {"id": "FEE_RECEIPT", "text": "Fee Receipt"},
    {"id": "FEE_ADJUSTMENT", "text": "Fee Adjustment"},
    {"id": "TERMINATION", "text": "Termination"}
  ]
}